# Blender v2.78 (sub 0) OBJ File: ''
# www.blender.org
mtllib ebermejo_f_upperlegs_B.mtl
o ebermejo_f_standard.001_ebermejo_f_standard.005
v 0.184762 -0.193218 0.023513
v 0.181634 -0.189668 -0.004907
v 0.036874 -0.196135 -0.098305
v 0.066678 -0.196708 -0.097374
v 0.031257 -0.247559 0.148735
v 0.014003 -0.249306 0.152632
v 0.169882 -0.207062 0.073585
v 0.151651 -0.212446 0.093704
v 0.180019 -0.200256 0.049791
v 0.109900 -0.669937 -0.054812
v 0.093449 -0.670775 -0.054891
v 0.125145 -0.671117 -0.048137
v 0.141344 -0.685239 0.009086
v 0.146954 -0.678550 -0.015349
v 0.128707 -0.690486 0.031445
v 0.034613 -0.683613 -0.005925
v 0.036838 -0.680820 -0.022670
v 0.060367 -0.675508 -0.044296
v 0.077038 -0.673461 -0.048741
v 0.138654 -0.673770 -0.034930
v 0.043834 -0.689485 0.011322
v 0.075141 -0.240741 0.132726
v 0.051309 -0.244803 0.141752
v 0.057343 -0.692365 0.027205
v 0.103259 -0.230720 0.122139
v 0.046751 -0.677095 -0.036525
v 0.154605 -0.192564 -0.056459
v 0.171203 -0.190208 -0.032819
v 0.128968 -0.220141 0.109176
v -0.000532 -0.250450 0.152847
v 0.135322 -0.194471 -0.073405
v 0.114748 -0.195475 -0.085372
v 0.092177 -0.196308 -0.093334
v 0.001352 -0.194592 -0.099013
v 0.077692 -0.706274 0.036635
v 0.092642 -0.707800 0.038722
v 0.108726 -0.705928 0.038994
v -0.182679 -0.194613 0.019467
v -0.178191 -0.191957 -0.008612
v -0.033690 -0.196714 -0.099031
v -0.063697 -0.198581 -0.097940
v -0.015914 -0.250217 0.150934
v -0.033519 -0.249354 0.145892
v -0.153369 -0.214319 0.091319
v -0.169883 -0.208401 0.070465
v -0.179559 -0.201069 0.046308
v -0.092426 -0.670432 -0.054184
v -0.109370 -0.670058 -0.054473
v -0.125108 -0.671550 -0.047691
v -0.147743 -0.679248 -0.015440
v -0.144340 -0.685785 0.008611
v -0.131012 -0.690891 0.030905
v -0.036586 -0.680915 -0.021384
v -0.036321 -0.685258 -0.004482
v -0.076098 -0.673136 -0.048171
v -0.059701 -0.675380 -0.043896
v -0.139418 -0.674300 -0.035260
v -0.045953 -0.690520 0.012051
v -0.076772 -0.242920 0.129318
v -0.053332 -0.246628 0.138163
v -0.059032 -0.693060 0.027585
v -0.105144 -0.233667 0.119703
v -0.045772 -0.677030 -0.035449
v -0.150315 -0.195233 -0.056784
v -0.167002 -0.192578 -0.034621
v -0.131368 -0.222948 0.106808
v -0.131310 -0.197457 -0.073972
v -0.089167 -0.199108 -0.094132
v -0.111427 -0.198382 -0.086008
v -0.094745 -0.708111 0.039131
v -0.079882 -0.706181 0.036858
v -0.111075 -0.706124 0.039104
l 6 30
l 30 42
l 45 46
l 40 41
l 21 24
l 8 29
l 16 21
l 14 20
l 61 71
l 11 19
l 12 20
l 5 23
l 38 39
l 16 17
l 64 65
l 18 19
l 70 71
l 70 72
l 58 61
l 38 46
l 35 36
l 36 37
l 49 57
l 47 55
l 47 48
l 2 28
l 48 49
l 41 68
l 62 66
l 53 63
l 44 45
l 59 60
l 42 43
l 56 63
l 22 25
l 27 28
l 22 23
l 64 67
l 55 56
l 51 52
l 50 51
l 53 54
l 50 57
l 43 60
l 44 66
l 25 29
l 68 69
l 3 34
l 7 9
l 67 69
l 1 2
l 31 32
l 54 58
l 34 40
l 32 33
l 4 33
l 15 37
l 59 62
l 5 6
l 7 8
l 3 4
l 17 26
l 13 14
l 13 15
l 10 12
l 18 26
l 10 11
l 39 65
l 27 31
l 52 72
l 1 9
l 24 35
