# Blender v2.78 (sub 0) OBJ File: ''
# www.blender.org
mtllib ebermejo_f_belly_B.mtl
o ebermejo_f_standard.001_ebermejo_f_standard.008
v 0.146399 0.015043 0.026076
v 0.144753 0.014824 -0.000321
v 0.102404 0.007381 0.105455
v 0.087334 0.007617 0.115896
v 0.122418 0.027287 -0.064066
v 0.133032 0.019922 -0.044954
v 0.040706 0.070154 -0.106509
v 0.018468 0.071856 -0.106999
v 0.090800 0.047961 -0.092143
v 0.108089 0.035929 -0.079352
v 0.070228 0.010495 0.124685
v 0.050055 0.015436 0.130576
v 0.142028 0.018760 0.056431
v 0.027011 0.016677 0.133262
v 0.068873 0.066556 -0.102844
v 0.140467 0.016214 -0.023598
v 0.003897 0.016450 0.134275
v 0.129160 0.012464 0.077471
v 0.116294 0.009181 0.093421
v 0.151627 -0.170781 -0.054223
v 0.168226 -0.169234 -0.031210
v 0.178639 -0.169592 -0.004352
v 0.181298 -0.173055 0.023868
v 0.176446 -0.179768 0.050478
v 0.165381 -0.187162 0.074277
v 0.148392 -0.194195 0.095346
v 0.127109 -0.201490 0.113353
v 0.103690 -0.209135 0.127786
v 0.079013 -0.216376 0.140729
v 0.055420 -0.221944 0.150655
v 0.034185 -0.225562 0.157230
v 0.014829 -0.227338 0.160662
v -0.002358 -0.228224 0.160675
v -0.000880 0.073499 -0.107135
v 0.065273 -0.176475 -0.090364
v 0.036338 -0.175775 -0.091950
v 0.131910 -0.172522 -0.070212
v 0.110966 -0.173865 -0.080919
v 0.089061 -0.175409 -0.087016
v 0.001790 -0.173003 -0.092493
v -0.144328 0.015459 0.003051
v -0.143896 0.015862 0.029608
v -0.078551 0.010700 0.117314
v -0.094122 0.009448 0.108069
v -0.132832 0.022482 -0.044341
v -0.121642 0.030388 -0.065262
v -0.018870 0.072437 -0.107851
v -0.039643 0.071727 -0.107751
v -0.106031 0.039404 -0.082253
v -0.088203 0.051568 -0.094903
v -0.040343 0.017861 0.129940
v -0.060880 0.013907 0.124701
v -0.136832 0.019049 0.060885
v -0.018543 0.017704 0.133336
v -0.066888 0.069442 -0.104935
v -0.140165 0.017934 -0.021205
v -0.108928 0.010441 0.096741
v -0.122195 0.013453 0.081185
v -0.146461 -0.172592 -0.055227
v -0.162901 -0.170945 -0.034353
v -0.174523 -0.171226 -0.009394
v -0.179118 -0.174437 0.018360
v -0.176004 -0.180494 0.045263
v -0.166821 -0.187956 0.069506
v -0.151928 -0.195429 0.091019
v -0.107574 -0.210325 0.122977
v -0.130933 -0.203074 0.108645
v -0.060797 -0.222082 0.145248
v -0.083656 -0.217349 0.134997
v -0.020423 -0.227801 0.158718
v -0.039975 -0.225837 0.153371
v -0.033177 -0.175822 -0.092433
v -0.062117 -0.177589 -0.091423
v -0.127198 -0.174457 -0.070922
v -0.106947 -0.175651 -0.081405
v -0.085654 -0.176863 -0.087996
l 70 71
l 68 71
l 66 67
l 68 69
l 42 53
l 66 69
l 49 50
l 2 16
l 60 61
l 62 63
l 64 65
l 65 67
l 61 62
l 63 64
l 43 52
l 59 60
l 48 55
l 9 10
l 31 32
l 45 46
l 32 33
l 27 28
l 26 27
l 45 56
l 14 17
l 24 25
l 25 26
l 8 34
l 28 29
l 30 31
l 29 30
l 57 58
l 51 54
l 1 2
l 4 11
l 53 58
l 11 12
l 5 10
l 20 21
l 73 76
l 23 24
l 21 22
l 22 23
l 5 6
l 72 73
l 50 55
l 59 74
l 41 42
l 6 16
l 75 76
l 44 57
l 35 36
l 7 8
l 17 54
l 3 4
l 43 44
l 37 38
l 18 19
l 35 39
l 41 56
l 7 15
l 36 40
l 1 13
l 74 75
l 38 39
l 20 37
l 47 48
l 51 52
l 3 19
l 40 72
l 33 70
l 9 15
l 13 18
l 12 14
l 34 47
l 46 49
