# Blender v2.78 (sub 0) OBJ File: ''
# www.blender.org
mtllib ebermejo_f_head_B.mtl
o ebermejo_f_standard.001_ebermejo_f_standard.008
v 0.049999 0.350351 0.022442
v 0.054695 0.354736 0.003532
v 0.050802 0.359447 -0.011531
v 0.044127 0.361090 -0.023342
v 0.029979 0.362103 -0.042306
v 0.036836 0.361888 -0.033220
v 0.019522 0.363138 -0.049665
v 0.040490 0.337153 0.044654
v -0.003779 0.363854 -0.057478
v 0.008831 0.363476 -0.055459
v 0.019244 0.321484 0.061066
v 0.028646 0.325991 0.054996
v 0.012102 0.318767 0.064402
v 0.005914 0.317025 0.064939
v -0.048710 0.346062 0.026814
v -0.054952 0.349310 0.008875
v -0.048464 0.357573 -0.020076
v -0.054901 0.354299 -0.007072
v -0.041234 0.360533 -0.030747
v -0.035275 0.361493 -0.040954
v -0.027136 0.361679 -0.049390
v -0.036172 0.332021 0.048848
v -0.016517 0.362494 -0.055230
v -0.021223 0.322135 0.058535
v -0.010637 0.318704 0.063632
v -0.001949 0.317516 0.065564
l 9 23
l 24 25
l 1 8
l 13 14
l 22 24
l 14 26
l 25 26
l 7 10
l 15 16
l 16 18
l 9 10
l 5 7
l 11 12
l 20 21
l 3 4
l 5 6
l 15 22
l 4 6
l 19 20
l 17 18
l 8 12
l 17 19
l 1 2
l 2 3
l 21 23
l 11 13
