# Blender v2.78 (sub 0) OBJ File: ''
# www.blender.org
mtllib ebermejo_m_upperarm_B.mtl
o ebermejo_m_standard.000_ebermejo_m_standard.002
v 0.165978 0.149520 0.071169
v 0.157500 0.157294 0.077497
v 0.150319 0.179334 0.075046
v 0.170646 0.138373 0.061647
v 0.181383 0.099323 -0.037037
v 0.182082 0.099086 -0.021062
v 0.174337 0.107342 -0.062366
v 0.178515 0.102071 -0.050460
v 0.147428 0.298854 -0.007984
v 0.149480 0.288118 0.018268
v 0.147548 0.250251 -0.085084
v 0.146545 0.266561 -0.072847
v 0.153077 0.197387 0.066730
v 0.153512 0.216423 0.058023
v 0.171362 0.125817 0.047678
v 0.179397 0.102086 -0.003656
v 0.445439 0.267252 -0.043136
v 0.442754 0.252893 -0.051886
v 0.450674 0.187884 -0.004915
v 0.448607 0.199995 0.004079
v 0.446556 0.229207 0.005446
v 0.446730 0.245483 0.004549
v 0.447537 0.261599 -0.000318
v 0.447811 0.273467 -0.012413
v 0.452038 0.219843 -0.073415
v 0.450015 0.233264 -0.069080
v 0.454309 0.178309 -0.036751
v 0.452044 0.186047 -0.051694
v 0.447390 0.214489 0.007019
v 0.447140 0.276330 -0.028770
v 0.453174 0.179187 -0.019380
v 0.448204 0.194887 -0.062990
v 0.451257 0.208702 -0.072020
v 0.174635 0.108796 0.014496
v 0.146403 0.297051 -0.035370
v 0.146474 0.283971 -0.058153
v 0.147646 0.233623 -0.092276
v 0.146982 0.216597 -0.095976
v 0.154960 0.150942 -0.091193
v 0.159363 0.136639 -0.087079
v 0.151965 0.266308 0.036420
v 0.153426 0.241120 0.048286
v 0.448738 0.242831 -0.061081
v 0.171033 0.115735 0.031162
v 0.147213 0.181976 -0.096478
v 0.150102 0.165692 -0.094453
v 0.146458 0.199316 -0.097158
v 0.169493 0.114813 -0.072692
v 0.164420 0.124336 -0.081141
v -0.160743 0.145217 0.072498
v -0.152402 0.152784 0.078796
v -0.134103 0.176924 0.079315
v -0.141587 0.157177 0.083121
v -0.165004 0.134653 0.063006
v -0.181607 0.098498 -0.017478
v -0.182273 0.098945 -0.033592
v -0.176018 0.107485 -0.059342
v -0.180062 0.102271 -0.047223
v -0.136264 0.285686 0.018329
v -0.134100 0.297819 -0.007678
v -0.145214 0.266487 -0.070748
v -0.145883 0.250386 -0.082515
v -0.137172 0.196416 0.071066
v -0.139040 0.215831 0.062049
v -0.138744 0.265001 0.037846
v -0.165603 0.123181 0.049104
v -0.177538 0.101559 0.000268
v -0.446441 0.253616 -0.051911
v -0.447916 0.267343 -0.043116
v -0.435402 0.200639 0.007670
v -0.436885 0.189255 -0.001981
v -0.434228 0.247684 0.007158
v -0.432539 0.231058 0.009003
v -0.449354 0.274275 -0.011135
v -0.435116 0.263729 0.000272
v -0.444347 0.230723 -0.069808
v -0.445340 0.217957 -0.073187
v -0.454964 0.186491 -0.053580
v -0.457060 0.178890 -0.038589
v -0.449004 0.276378 -0.028749
v -0.439705 0.181027 -0.016027
v -0.455157 0.179549 -0.020280
v -0.451155 0.196183 -0.064652
v -0.434178 0.215055 0.011582
v -0.171607 0.107436 0.017513
v -0.145735 0.216361 -0.093318
v -0.146104 0.233507 -0.089618
v -0.154670 0.151918 -0.087382
v -0.159887 0.137542 -0.083589
v -0.132290 0.296294 -0.035674
v -0.139566 0.239879 0.051001
v -0.447573 0.206069 -0.070530
v -0.444299 0.242556 -0.062337
v -0.166065 0.113767 0.032978
v -0.132035 0.283952 -0.060058
v -0.148583 0.166676 -0.090486
v -0.146371 0.182345 -0.093201
v -0.145460 0.199310 -0.094510
v -0.170939 0.114770 -0.069775
v -0.165522 0.125076 -0.077862
l 26 43
l 90 95
l 68 93
l 88 96
l 41 42
l 89 100
l 65 91
l 48 49
l 39 40
l 55 56
l 45 46
l 85 94
l 45 47
l 59 60
l 61 62
l 35 36
l 17 30
l 37 38
l 99 100
l 6 16
l 52 63
l 4 15
l 13 14
l 77 92
l 76 93
l 7 8
l 96 97
l 97 98
l 10 41
l 67 85
l 69 80
l 55 67
l 17 18
l 83 92
l 79 82
l 12 36
l 78 83
l 51 53
l 68 69
l 50 51
l 5 6
l 14 42
l 21 22
l 66 94
l 32 33
l 9 35
l 34 44
l 81 82
l 11 37
l 7 48
l 19 20
l 70 84
l 5 8
l 20 29
l 73 84
l 59 65
l 50 54
l 24 30
l 60 90
l 22 23
l 21 29
l 23 24
l 25 26
l 61 95
l 9 10
l 1 2
l 27 28
l 11 12
l 2 3
l 52 53
l 62 87
l 19 31
l 56 58
l 64 91
l 57 58
l 28 32
l 40 49
l 1 4
l 27 31
l 38 47
l 54 66
l 74 75
l 76 77
l 74 80
l 39 46
l 25 33
l 63 64
l 70 71
l 86 98
l 3 13
l 78 79
l 71 81
l 86 87
l 18 43
l 72 75
l 57 99
l 72 73
l 15 44
l 16 34
l 88 89
