# Blender v2.78 (sub 0) OBJ File: ''
# www.blender.org
mtllib ebermejo_m_lowerarm_B.mtl
o ebermejo_m_standard.000_ebermejo_m_standard.002
v 0.445439 0.267252 -0.043136
v 0.442754 0.252893 -0.051886
v 0.450674 0.187884 -0.004915
v 0.448607 0.199995 0.004079
v 0.446556 0.229207 0.005446
v 0.446730 0.245483 0.004549
v 0.447537 0.261599 -0.000318
v 0.447811 0.273467 -0.012413
v 0.443005 0.216514 -0.072385
v 0.440883 0.229326 -0.068884
v 0.454309 0.178309 -0.036751
v 0.452044 0.186047 -0.051694
v 0.447390 0.214489 0.007019
v 0.447140 0.276330 -0.028770
v 0.453174 0.179187 -0.019380
v 0.448204 0.194887 -0.062990
v 0.444550 0.204501 -0.069430
v 0.440525 0.241166 -0.061099
v -0.426535 0.180348 -0.028518
v -0.427444 0.183973 -0.042532
v -0.421567 0.190486 -0.000034
v -0.420543 0.201516 0.010003
v -0.422307 0.272628 -0.017465
v -0.422438 0.263979 -0.001571
v -0.424198 0.182942 -0.013508
v -0.423344 0.250834 -0.055925
v -0.423989 0.238856 -0.064523
v -0.424650 0.225397 -0.068431
v -0.425557 0.211922 -0.068049
v -0.420992 0.248203 0.007681
v -0.423024 0.262318 -0.046314
v -0.422729 0.271371 -0.033779
v -0.426671 0.199806 -0.062727
v -0.427389 0.191663 -0.053263
v -0.418976 0.231948 0.012251
v -0.420033 0.215877 0.014365
l 9 17
l 10 18
l 28 29
l 16 17
l 1 14
l 31 32
l 30 35
l 29 33
l 35 36
l 33 34
l 21 25
l 19 25
l 1 2
l 24 30
l 21 22
l 19 20
l 22 36
l 23 32
l 5 6
l 3 4
l 4 13
l 8 14
l 26 31
l 6 7
l 27 28
l 5 13
l 7 8
l 26 27
l 9 10
l 11 12
l 3 15
l 12 16
l 11 15
l 20 34
l 23 24
l 2 18
